<svg width="122" height="141" viewBox="0 0 122 141" fill="none" xmlns="http://www.w3.org/2000/svg">
<ellipse rx="0.703132" ry="0.714584" transform="matrix(0.928368 0.371662 -0.357745 0.933819 30.6649 25.2464)" fill="#2F235A"/>
<ellipse rx="0.703132" ry="0.714584" transform="matrix(0.142315 0.989821 -0.987584 0.157093 58.8057 23.8082)" fill="#2F235A"/>
<ellipse rx="0.703132" ry="0.714584" transform="matrix(0.142315 0.989821 -0.987584 0.157093 72.8057 29.8082)" fill="#FE9076"/>
<ellipse rx="0.703132" ry="0.714584" transform="matrix(0.142315 0.989821 -0.987584 0.157093 62.8057 38.8082)" fill="#FFA400"/>
<ellipse rx="0.703132" ry="0.714584" transform="matrix(0.928368 0.371662 -0.357745 0.933819 48.0227 16.2359)" fill="#FE9076"/>
<ellipse rx="0.703132" ry="0.714584" transform="matrix(0.928368 0.371662 -0.357745 0.933819 14.7028 20.1505)" fill="#FFA400"/>
<ellipse rx="0.703132" ry="0.714584" transform="matrix(0.928368 0.371662 -0.357745 0.933819 29.7565 49.0055)" fill="#23BB86"/>
<path d="M47.4903 12.8102C46.8083 10.1474 44.3465 4.05733 39.9558 0.999943" stroke="#FE9076" stroke-width="0.736823" stroke-linecap="round"/>
<path d="M12.6338 17.2591C10.9367 15.122 6.23405 10.6153 1.00001 9.68485" stroke="#FFA400" stroke-width="0.736823" stroke-linecap="round"/>
<path d="M26.7736 50.0472C25.2696 50.6079 21.4836 52.3946 18.3711 55.0556" stroke="#23BB86" stroke-width="0.736823" stroke-linecap="round"/>
<ellipse rx="0.703132" ry="0.714584" transform="matrix(-0.928368 0.371662 0.357745 0.933819 91.3351 25.2464)" fill="#2F235A"/>
<ellipse rx="0.703132" ry="0.714584" transform="matrix(-0.928368 0.371662 0.357745 0.933819 73.9773 16.2359)" fill="#FE9076"/>
<ellipse rx="0.703132" ry="0.714584" transform="matrix(-0.928368 0.371662 0.357745 0.933819 107.297 20.1505)" fill="#FFA400"/>
<ellipse rx="0.703132" ry="0.714584" transform="matrix(-0.928368 0.371662 0.357745 0.933819 92.2435 49.0055)" fill="#23BB86"/>
<path d="M74.5097 12.8102C75.1917 10.1474 77.6535 4.05733 82.0442 0.999943" stroke="#FE9076" stroke-width="0.736823" stroke-linecap="round"/>
<path d="M109.366 17.2591C111.063 15.122 115.766 10.6153 121 9.68485" stroke="#FFA400" stroke-width="0.736823" stroke-linecap="round"/>
<path d="M95.2264 50.0472C96.7304 50.6079 100.516 52.3946 103.629 55.0556" stroke="#23BB86" stroke-width="0.736823" stroke-linecap="round"/>
<rect x="22.7531" y="88.4198" width="74.4081" height="52.5802" fill="url(#paint0_linear)"/>
<mask id="mask0" mask-type="alpha" maskUnits="userSpaceOnUse" x="22" y="88" width="76" height="53">
<rect x="22.7531" y="88.4198" width="74.4081" height="52.5802" fill="#C4C4C4"/>
</mask>
<g mask="url(#mask0)">
<path d="M26.2738 87.0809L76.9406 87.0808L65.4887 107.408L14.8219 107.408L26.2738 87.0809Z" fill="black" fill-opacity="0.07"/>
<rect x="73.3535" y="88.4198" width="74.4081" height="52.5802" fill="url(#paint1_linear)"/>
</g>
<path d="M22.6872 88.4198L73.354 88.4198L63.5667 105.116L12.8999 105.116L22.6872 88.4198Z" fill="url(#paint2_linear)"/>
<mask id="mask1" mask-type="alpha" maskUnits="userSpaceOnUse" x="73" y="88" width="25" height="53">
<rect x="73.354" y="88.4198" width="23.8071" height="52.5802" fill="#C4C4C4"/>
</mask>
<g mask="url(#mask1)">
<path d="M94.2628 88.3268L70.4184 88.3268L81.6224 107.549L105.467 107.549L94.2628 88.3268Z" fill="black" fill-opacity="0.07"/>
</g>
<path d="M97.1984 88.4198L73.354 88.4198L83.1413 105.116L106.986 105.116L97.1984 88.4198Z" fill="url(#paint3_linear)"/>
<ellipse cx="47.5374" cy="75.0269" rx="7.03153" ry="7.18801" fill="url(#paint4_linear)"/>
<ellipse cx="74.5588" cy="57.3062" rx="6.79461" ry="6.94582" fill="url(#paint5_linear)"/>
<ellipse cx="49.0897" cy="48.3461" rx="5.47918" ry="5.60112" fill="url(#paint6_linear)"/>
<ellipse cx="61.1665" cy="55.9092" rx="1.36642" ry="1.39683" fill="#FFA800" fill-opacity="0.23"/>
<ellipse cx="83.8912" cy="44.1418" rx="1.36642" ry="1.39683" fill="#FFA800" fill-opacity="0.23"/>
<ellipse cx="85.2575" cy="21.4826" rx="1.36642" ry="1.39683" fill="#FFA800" fill-opacity="0.23"/>
<ellipse cx="39.1394" cy="24.0108" rx="1.36642" ry="1.39683" fill="#FFA800" fill-opacity="0.23"/>
<ellipse cx="66.9633" cy="78.1295" rx="1.36642" ry="1.39683" fill="#FFA800" fill-opacity="0.23"/>
<ellipse cx="32.6749" cy="53.1155" rx="1.36642" ry="1.39683" fill="#FFA800" fill-opacity="0.23"/>
<path d="M97.3369 88.6686H22.6941L11.2308 16.4163H111.102L97.3369 88.6686Z" fill="url(#paint7_linear)"/>
<defs>
<linearGradient id="paint0_linear" x1="47.6088" y1="78.6851" x2="16.7801" y2="161.748" gradientUnits="userSpaceOnUse">
<stop stop-color="#FFD481"/>
<stop offset="1" stop-color="#FA620C"/>
</linearGradient>
<linearGradient id="paint1_linear" x1="35.4481" y1="85.0848" x2="127.565" y2="181.381" gradientUnits="userSpaceOnUse">
<stop stop-color="#FFD481"/>
<stop offset="0.83311" stop-color="#FA620C"/>
</linearGradient>
<linearGradient id="paint2_linear" x1="23.7299" y1="82.4525" x2="21.2141" y2="118.02" gradientUnits="userSpaceOnUse">
<stop stop-color="#FFD481"/>
<stop offset="1" stop-color="#FA620C"/>
</linearGradient>
<linearGradient id="paint3_linear" x1="100.961" y1="82.4525" x2="105.433" y2="117.629" gradientUnits="userSpaceOnUse">
<stop stop-color="#FFD481"/>
<stop offset="1" stop-color="#FA620C"/>
</linearGradient>
<linearGradient id="paint4_linear" x1="48.0698" y1="65.4666" x2="46.6724" y2="84.8645" gradientUnits="userSpaceOnUse">
<stop stop-color="#FF9F81"/>
<stop offset="1" stop-color="#F53838"/>
</linearGradient>
<linearGradient id="paint5_linear" x1="75.0733" y1="48.068" x2="73.723" y2="66.8123" gradientUnits="userSpaceOnUse">
<stop stop-color="#FF9F81"/>
<stop offset="1" stop-color="#F53838"/>
</linearGradient>
<linearGradient id="paint6_linear" x1="49.5046" y1="40.8964" x2="48.4157" y2="56.0119" gradientUnits="userSpaceOnUse">
<stop stop-color="#FF9F81"/>
<stop offset="1" stop-color="#F53838"/>
</linearGradient>
<linearGradient id="paint7_linear" x1="60.3458" y1="16.4163" x2="60.3458" y2="169.918" gradientUnits="userSpaceOnUse">
<stop stop-color="white" stop-opacity="0"/>
<stop offset="1" stop-color="#FE9277"/>
</linearGradient>
</defs>
</svg>
