<svg width="765" height="925" viewBox="0 0 765 925" fill="none" xmlns="http://www.w3.org/2000/svg">
<path fill-rule="evenodd" clip-rule="evenodd" d="M607 157.9H687.9V77H607V157.9ZM683.6 153.6H611.3V81.3H683.6V153.6Z" fill="#023E73"/>
<rect x="607.57" y="154.293" width="108.399" height="4.29996" transform="rotate(-45 607.57 154.293)" fill="#023E73"/>
<rect x="607.57" y="80.7544" width="4.29996" height="108.399" transform="rotate(-45 607.57 80.7544)" fill="#023E73"/>
<path fill-rule="evenodd" clip-rule="evenodd" d="M683.7 157.9H764.6V77H683.7V157.9ZM760.2 153.6H687.9V81.3H760.2V153.6Z" fill="#023E73"/>
<rect x="684.178" y="154.316" width="108.399" height="4.29996" transform="rotate(-45 684.178 154.316)" fill="#023E73"/>
<rect x="684.249" y="80.707" width="4.29996" height="108.399" transform="rotate(-45 684.249 80.707)" fill="#023E73"/>
<path fill-rule="evenodd" clip-rule="evenodd" d="M453.8 924.2H534.7V843.3H453.8V924.2ZM530.3 919.9H458V847.6H530.3V919.9Z" fill="#023E73"/>
<rect x="454.26" y="920.618" width="108.399" height="4.29996" transform="rotate(-45 454.26 920.618)" fill="#023E73"/>
<rect x="454.331" y="847.009" width="4.29996" height="108.399" transform="rotate(-45 454.331 847.009)" fill="#023E73"/>
<path fill-rule="evenodd" clip-rule="evenodd" d="M453.8 847.6H534.7V766.7H453.8V847.6ZM530.3 843.3H458V771H530.3V843.3Z" fill="#023E73"/>
<rect x="454.283" y="844.009" width="108.399" height="4.29996" transform="rotate(-45 454.283 844.009)" fill="#023E73"/>
<rect x="454.283" y="770.329" width="4.29996" height="108.399" transform="rotate(-45 454.283 770.329)" fill="#023E73"/>
<path fill-rule="evenodd" clip-rule="evenodd" d="M453.8 771H534.7V690H453.8V771ZM530.3 766.7H458V694.4H530.3V766.7Z" fill="#023E73"/>
<rect x="454.307" y="767.401" width="108.399" height="4.29996" transform="rotate(-45 454.307 767.401)" fill="#023E73"/>
<rect x="454.307" y="693.721" width="4.29996" height="108.399" transform="rotate(-45 454.307 693.721)" fill="#023E73"/>
<path fill-rule="evenodd" clip-rule="evenodd" d="M453.8 694.3H534.7V613.4H453.8V694.3ZM530.3 690H458V617.7H530.3V690Z" fill="#023E73"/>
<rect x="454.259" y="690.721" width="108.399" height="4.29996" transform="rotate(-45 454.259 690.721)" fill="#023E73"/>
<rect x="454.33" y="617.112" width="4.29996" height="108.399" transform="rotate(-45 454.33 617.112)" fill="#023E73"/>
<path fill-rule="evenodd" clip-rule="evenodd" d="M453.8 617.7H534.7V536.8H453.8V617.7ZM530.3 613.4H458V541.1H530.3V613.4Z" fill="#023E73"/>
<rect x="454.283" y="614.112" width="108.399" height="4.29996" transform="rotate(-45 454.283 614.112)" fill="#023E73"/>
<rect x="454.283" y="540.432" width="4.29996" height="108.399" transform="rotate(-45 454.283 540.432)" fill="#023E73"/>
<path fill-rule="evenodd" clip-rule="evenodd" d="M453.8 541.1H534.7V460.2H453.8V541.1ZM530.3 536.8H458V464.5H530.3V536.8Z" fill="#023E73"/>
<rect x="454.306" y="537.503" width="108.399" height="4.29996" transform="rotate(-45 454.306 537.503)" fill="#023E73"/>
<rect x="454.306" y="463.823" width="4.29996" height="108.399" transform="rotate(-45 454.306 463.823)" fill="#023E73"/>
<path fill-rule="evenodd" clip-rule="evenodd" d="M453.8 464.4H534.7V383.5H453.8V464.4ZM530.3 460.1H458V387.8H530.3V460.1Z" fill="#023E73"/>
<rect x="454.259" y="460.823" width="108.399" height="4.29996" transform="rotate(-45 454.259 460.823)" fill="#023E73"/>
<rect x="454.329" y="387.214" width="4.29996" height="108.399" transform="rotate(-45 454.329 387.214)" fill="#023E73"/>
<path fill-rule="evenodd" clip-rule="evenodd" d="M453.8 387.8H534.7V306.9H453.8V387.8ZM530.3 383.5H458V311.2H530.3V383.5Z" fill="#023E73"/>
<rect x="454.282" y="384.214" width="108.399" height="4.29996" transform="rotate(-45 454.282 384.214)" fill="#023E73"/>
<rect x="454.352" y="310.605" width="4.29996" height="108.399" transform="rotate(-45 454.352 310.605)" fill="#023E73"/>
<path fill-rule="evenodd" clip-rule="evenodd" d="M453.8 311.2H534.7V230.3H453.8V311.2ZM530.3 306.9H458V234.6H530.3V306.9Z" fill="#023E73"/>
<rect x="454.305" y="307.605" width="108.399" height="4.29996" transform="rotate(-45 454.305 307.605)" fill="#023E73"/>
<rect x="454.305" y="233.926" width="4.29996" height="108.399" transform="rotate(-45 454.305 233.926)" fill="#023E73"/>
<path fill-rule="evenodd" clip-rule="evenodd" d="M453.8 234.5H534.7V153.6H453.8V234.5ZM530.3 230.2H458V157.9H530.3V230.2Z" fill="#023E73"/>
<rect x="454.258" y="230.926" width="108.399" height="4.29996" transform="rotate(-45 454.258 230.926)" fill="#023E73"/>
<rect x="454.328" y="157.316" width="4.29996" height="108.399" transform="rotate(-45 454.328 157.316)" fill="#023E73"/>
<path fill-rule="evenodd" clip-rule="evenodd" d="M453.8 157.9H534.7V77H453.8V157.9ZM530.3 153.6H458V81.3H530.3V153.6Z" fill="#023E73"/>
<rect x="454.281" y="154.317" width="108.399" height="4.29996" transform="rotate(-45 454.281 154.317)" fill="#023E73"/>
<rect x="454.352" y="80.708" width="4.29996" height="108.399" transform="rotate(-45 454.352 80.708)" fill="#023E73"/>
<path fill-rule="evenodd" clip-rule="evenodd" d="M453.8 81.2999H534.7V0.399902H453.8V81.2999ZM530.3 76.9999H458V4.6999H530.3V76.9999Z" fill="#023E73"/>
<rect x="454.304" y="77.7078" width="108.399" height="4.29996" transform="rotate(-45 454.304 77.7078)" fill="#023E73"/>
<rect x="454.304" y="4.02783" width="4.29996" height="108.399" transform="rotate(-45 454.304 4.02783)" fill="#023E73"/>
<path fill-rule="evenodd" clip-rule="evenodd" d="M377.4 157.9H458.3V77H377.4V157.9ZM454 153.6H381.7V81.3H454V153.6Z" fill="#023E73"/>
<rect x="377.961" y="154.27" width="108.399" height="4.29996" transform="rotate(-45 377.961 154.27)" fill="#023E73"/>
<rect x="377.961" y="80.7312" width="4.29996" height="108.399" transform="rotate(-45 377.961 80.7312)" fill="#023E73"/>
<path fill-rule="evenodd" clip-rule="evenodd" d="M607.4 157.9H688.3V77H607.4V157.9ZM684 153.6H611.7V81.3H684V153.6Z" fill="#023E73"/>
<rect x="607.961" y="154.27" width="108.399" height="4.29996" transform="rotate(-45 607.961 154.27)" fill="#023E73"/>
<rect x="607.961" y="80.7312" width="4.29996" height="108.399" transform="rotate(-45 607.961 80.7312)" fill="#023E73"/>
<path fill-rule="evenodd" clip-rule="evenodd" d="M300.4 157.9H381.3V77H300.4V157.9ZM377 153.6H304.7V81.3H377V153.6Z" fill="#023E73"/>
<rect x="300.961" y="154.27" width="108.399" height="4.29996" transform="rotate(-45 300.961 154.27)" fill="#023E73"/>
<rect x="300.961" y="80.7312" width="4.29996" height="108.399" transform="rotate(-45 300.961 80.7312)" fill="#023E73"/>
<path fill-rule="evenodd" clip-rule="evenodd" d="M530.4 157.9H611.3V77H530.4V157.9ZM607 153.6H534.7V81.3H607V153.6Z" fill="#023E73"/>
<rect x="530.961" y="154.27" width="108.399" height="4.29996" transform="rotate(-45 530.961 154.27)" fill="#023E73"/>
<rect x="530.961" y="80.7312" width="4.29996" height="108.399" transform="rotate(-45 530.961 80.7312)" fill="#023E73"/>
<path fill-rule="evenodd" clip-rule="evenodd" d="M224.1 157.9H305V77H224.1V157.9ZM300.7 153.6H228.4V81.3H300.7V153.6Z" fill="#023E73"/>
<rect x="224.672" y="154.293" width="108.399" height="4.29996" transform="rotate(-45 224.672 154.293)" fill="#023E73"/>
<rect x="224.672" y="80.7551" width="4.29996" height="108.399" transform="rotate(-45 224.672 80.7551)" fill="#023E73"/>
<path fill-rule="evenodd" clip-rule="evenodd" d="M147.5 157.9H228.4V77H147.5V157.9ZM224.1 153.6H151.8V81.3H224.1V153.6Z" fill="#023E73"/>
<rect x="148.063" y="154.27" width="108.399" height="4.29996" transform="rotate(-45 148.063 154.27)" fill="#023E73"/>
<rect x="148.063" y="80.7319" width="4.29996" height="108.399" transform="rotate(-45 148.063 80.7319)" fill="#023E73"/>
<path fill-rule="evenodd" clip-rule="evenodd" d="M147.65 77L72.0001 154L72.0862 154.138L71.9999 157.999H74.4994L74.5 158L74.5009 157.999H181.632L181.721 154H78.4126L150.69 80.1093L147.65 77Z" fill="#023E73"/>
<path d="M251.7 216.4H22.8001C10.3001 216.4 0.00012207 206.2 0.00012207 193.6V187C0.00012207 174.5 10.2001 164.2 22.8001 164.2H251.7C264.2 164.2 274.5 174.4 274.5 187V193.6C274.4 206.2 264.2 216.4 251.7 216.4Z" fill="#023E73"/>
<rect x="132" y="192" width="5" height="67" fill="#023E73"/>
<path d="M151.5 299.9H121C114.3 299.9 108.8 294.4 108.8 287.7V257.2C108.8 250.5 114.3 245 121 245H151.5C158.2 245 163.7 250.5 163.7 257.2V287.7C163.7 294.4 158.2 299.9 151.5 299.9Z" fill="#023E73"/>
<path d="M126.8 358.4C109.4 358.4 99.7 343.6 98 329.7L102.3 329.2C103.8 341.2 112.1 354.1 126.8 354.1C126.9 354.1 126.9 354.1 127 354.1C138.6 354 150.9 345.5 150.9 333C150.9 317.9 135.6 311.6 135.4 311.6L134.1 311.1V291.2H138.4V308.3C142.6 310.4 155.2 317.8 155.2 333.1C155.2 348.7 140.6 358.4 127 358.5C126.9 358.4 126.9 358.4 126.8 358.4Z" fill="#023E73"/>
</svg>
