<svg width="25" height="24" viewBox="0 0 25 24" fill="none" xmlns="http://www.w3.org/2000/svg">
<path d="M11.4486 16.7303C11.3174 16.7305 11.1873 16.7049 11.066 16.6548C10.9447 16.6047 10.8345 16.5311 10.7416 16.4383L6.49963 12.1953C6.40406 12.1031 6.3278 11.9928 6.27531 11.8708C6.22282 11.7489 6.19514 11.6177 6.19389 11.4849C6.19264 11.3521 6.21785 11.2204 6.26805 11.0975C6.31824 10.9745 6.39242 10.8628 6.48624 10.7689C6.58007 10.6749 6.69166 10.6006 6.81452 10.5502C6.93738 10.4999 7.06904 10.4745 7.20182 10.4755C7.3346 10.4766 7.46584 10.5041 7.58788 10.5564C7.70992 10.6087 7.82032 10.6848 7.91263 10.7803L11.4476 14.3153L17.8126 7.95226C18.0001 7.76462 18.2545 7.65915 18.5198 7.65906C18.7851 7.65896 19.0395 7.76425 19.2271 7.95176C19.4148 8.13927 19.5202 8.39364 19.5203 8.65891C19.5204 8.92418 19.4151 9.17862 19.2276 9.36626L12.1556 16.4383C12.0628 16.5311 11.9526 16.6047 11.8313 16.6548C11.7099 16.7049 11.5799 16.7305 11.4486 16.7303V16.7303Z" fill="#2FAB73"/>
</svg>
