<svg width="183" height="3" viewBox="0 0 183 3" fill="none" xmlns="http://www.w3.org/2000/svg">
<line x1="1.5" y1="1.5" x2="181.5" y2="1.5" stroke="#F2275D" stroke-width="3" stroke-linecap="round" stroke-linejoin="round" stroke-dasharray="7 8"/>
</svg>
