<svg width="1063" height="397" viewBox="0 0 1063 397" fill="none" xmlns="http://www.w3.org/2000/svg">
<path d="M1061.5 2L1061.5 260.721C1061.5 274.528 1050.31 285.721 1036.5 285.721L43.9997 285.721C30.1926 285.721 18.9997 296.913 18.9997 310.721L18.9997 366" stroke="#F2275D" stroke-width="3" stroke-linecap="round" stroke-linejoin="round" stroke-dasharray="7 8"/>
<circle cx="18.75" cy="377.75" r="18.75" fill="#F2275D"/>
<path d="M20.8896 367.724C21.26 367.682 21.6344 367.663 22.0047 367.673C26.9257 367.79 30.851 372.429 30.7481 378.021C30.6453 383.609 26.5595 388.061 21.6344 387.949L21.6796 385.52C25.4239 385.608 28.5304 382.221 28.6085 377.974C28.6867 373.723 25.7037 370.196 21.9635 370.107C21.6838 370.102 21.3957 370.112 21.1118 370.149L20.8896 367.724Z" fill="white"/>
<path d="M18.75 386.132L24.608 382.25L24.75 389.75L18.75 386.132Z" fill="white"/>
<path d="M16.6104 387.771C16.2401 387.813 15.8657 387.832 15.4954 387.823C10.5744 387.706 6.64911 383.067 6.75198 377.474C6.85484 371.887 10.9406 367.434 15.8657 367.547L15.8205 369.976C12.0762 369.887 8.96972 373.274 8.89154 377.521C8.81337 381.773 11.7964 385.3 15.5365 385.389C15.8163 385.393 16.1044 385.384 16.3883 385.347L16.6104 387.771Z" fill="white"/>
<path d="M18.75 368.882L12.892 365L12.75 372.5L18.75 368.882Z" fill="white"/>
</svg>
