<svg width="303" height="186" viewBox="0 0 303 186" fill="none" xmlns="http://www.w3.org/2000/svg">
<path d="M2.00001 2.00001L2 142C2 155.807 13.1929 167 27 167L286 167" stroke="#F2275D" stroke-width="3" stroke-linecap="round" stroke-linejoin="round" stroke-dasharray="7 8"/>
<circle cx="283.75" cy="166.751" r="18.75" fill="#F2275D"/>
<path d="M285.889 156.725C286.26 156.683 286.634 156.664 287.004 156.674C291.925 156.79 295.851 161.43 295.748 167.022C295.645 172.61 291.559 177.062 286.634 176.95L286.679 174.52C290.424 174.609 293.53 171.222 293.608 166.975C293.686 162.724 290.703 159.197 286.963 159.108C286.684 159.103 286.395 159.112 286.112 159.15L285.889 156.725Z" fill="white"/>
<path d="M283.75 175.133L289.608 171.251L289.75 178.751L283.75 175.133Z" fill="white"/>
<path d="M281.61 176.772C281.24 176.814 280.866 176.833 280.495 176.824C275.574 176.707 271.649 172.068 271.752 166.475C271.855 160.888 275.941 156.435 280.866 156.547L280.82 158.977C277.076 158.888 273.97 162.275 273.892 166.522C273.813 170.773 276.796 174.301 280.537 174.389C280.816 174.394 281.104 174.385 281.388 174.347L281.61 176.772Z" fill="white"/>
<path d="M283.75 157.883L277.892 154.001L277.75 161.501L283.75 157.883Z" fill="white"/>
</svg>
